{
  "director": "Menu",
  "background": "#000000",
  "showMouse": true,
  "layout": "default",
  "snapToGrid": {
    "enabled": false,
    "xSpacing": 50,
    "ySpacing": 50,
    "xOffset": 0,
    "yOffset": 0,
    "xCloseness": 10,
    "yCloseness": 10
  },
  "snapToGuides": {
    "enabled": true,
    "closeness": 5,
    "x": [
      
    ],
    "y": [
      
    ]
  },
  "snapToOthers": {
    "enabled": true,
    "xCloseness": 10,
    "yCloseness": 10
  },
  "snapRotation": {
    "enabled": true,
    "step": 15,
    "closeness": 15
  },
  "include": [
    
  ],
  "stages": [
    {
      "name": "glass",
      "actors": [
        {
          "costume": "background1",
          "x": -200,
          "y": 1200,
          "isLocked": true,
          "scaleX": 2,
          "scaleY": 2
        },
        {
          "costume": "sceneButton",
          "x": 720,
          "y": 136.256,
          "text": "Phase Shift",
          "textVAlignment": "BASELINE",
          "autoPositionAlignmentX": 0.5,
          "attributes": [
            {
              "name": "scene",
              "value": "chapter1/1"
            },
            {
              "name": "showInSeconds",
              "value": "7"
            },
            {
              "name": "duration",
              "value": "1"
            }
          ]
        },
        {
          "costume": "largeInfo",
          "x": 720,
          "y": 629,
          "text": "Victory !",
          "textOutlineColor": "#00000000",
          "autoPositionAlignmentX": 0.5,
          "scaleX": 2,
          "scaleY": 2,
          "attributes": [
            {
              "name": "event",
              "value": ""
            },
            {
              "name": "showInSeconds",
              "value": "1"
            },
            {
              "name": "hideAfterSeconds",
              "value": "0"
            },
            {
              "name": "duration",
              "value": "1"
            }
          ]
        },
        {
          "costume": "info",
          "x": 720,
          "y": 400.24,
          "text": "Golly, aren't you doing well.\nYou're a third of the way through.\nNext up, it's ...",
          "textVAlignment": "CENTER",
          "autoPositionAlignmentX": 0.5,
          "attributes": [
            {
              "name": "event",
              "value": ""
            },
            {
              "name": "showInSeconds",
              "value": "3"
            },
            {
              "name": "hideAfterSeconds",
              "value": "0"
            },
            {
              "name": "duration",
              "value": "1"
            }
          ]
        }
      ]
    }
  ]
}